top_proc_tb.vcd
$date
	Thu Jan  9 05:45:04 2025
$end
$version
	Icarus Verilog
$end
$timescale
	1ns
$end
$scope module top_proc_tb $end
$var wire 32 ! instr [31:0] $end
$var wire 32 " dWriteData [31:0] $end
$var wire 32 # dReadData [31:0] $end
$var wire 32 $ dAddress [31:0] $end
$var wire 32 % WriteBackData [31:0] $end
$var wire 32 & PC [31:0] $end
$var wire 1 ' MemWrite $end
$var wire 1 ( MemRead $end
$var reg 1 ) clk $end
$var reg 1 * rst $end
$scope module ram $end
$var wire 9 + addr [8:0] $end
$var wire 1 ) clk $end
$var wire 1 ' we $end
$var wire 32 , din [31:0] $end
$var reg 32 - dout [31:0] $end
$upscope $end
$scope module rom $end
$var wire 9 . addr [8:0] $end
$var wire 1 ) clk $end
$var reg 32 / dout [31:0] $end
$upscope $end
$scope module uut $end
$var wire 1 ) clk $end
$var wire 32 0 dReadData [31:0] $end
$var wire 32 1 instr [31:0] $end
$var wire 1 * rst $end
$var wire 32 2 dWriteData [31:0] $end
$var wire 32 3 dAddress [31:0] $end
$var wire 1 4 Zero $end
$var wire 32 5 WriteBackData [31:0] $end
$var wire 32 6 PC [31:0] $end
$var parameter 4 7 ALUOP_ADD $end
$var parameter 4 8 ALUOP_AND $end
$var parameter 4 9 ALUOP_OR $end
$var parameter 4 : ALUOP_SLL $end
$var parameter 4 ; ALUOP_SLT $end
$var parameter 4 < ALUOP_SRA $end
$var parameter 4 = ALUOP_SRL $end
$var parameter 4 > ALUOP_SUB $end
$var parameter 4 ? ALUOP_XOR $end
$var parameter 3 @ AND $end
$var parameter 3 A ARITHMETIC $end
$var parameter 7 B BEQ $end
$var parameter 3 C EX $end
$var parameter 3 D ID $end
$var parameter 3 E IF $end
$var parameter 7 F IMMEDIATE $end
$var parameter 32 G INITIAL_PC $end
$var parameter 7 H LW $end
$var parameter 3 I MEM $end
$var parameter 3 J OR $end
$var parameter 7 K R $end
$var parameter 3 L SLL $end
$var parameter 3 M SLT $end
$var parameter 3 N SRL $end
$var parameter 7 O SW $end
$var parameter 3 P WB $end
$var parameter 3 Q XOR $end
$var reg 4 R ALUCtrl [3:0] $end
$var reg 1 S ALUSrc $end
$var reg 1 ( MemRead $end
$var reg 1 T MemToReg $end
$var reg 1 ' MemWrite $end
$var reg 1 U PCSrc $end
$var reg 1 V RegWrite $end
$var reg 3 W current_state [2:0] $end
$var reg 1 X loadPC $end
$var reg 3 Y next_state [2:0] $end
$scope module datapath_instance $end
$var wire 4 Z ALUCtrl [3:0] $end
$var wire 1 S ALUSrc $end
$var wire 1 T MemToReg $end
$var wire 1 U PCSrc $end
$var wire 1 V RegWrite $end
$var wire 1 ) clk $end
$var wire 32 [ dReadData [31:0] $end
$var wire 32 \ instr [31:0] $end
$var wire 1 X loadPC $end
$var wire 1 * rst $end
$var wire 32 ] readData2 [31:0] $end
$var wire 32 ^ readData1 [31:0] $end
$var wire 32 _ immediate_S [31:0] $end
$var wire 32 ` immediate_I [31:0] $end
$var wire 32 a immediate_B [31:0] $end
$var wire 1 4 Zero $end
$var wire 32 b PC [31:0] $end
$var wire 32 c ALUResult [31:0] $end
$var parameter 7 d BEQ $end
$var parameter 7 e IMMEDIATE $end
$var parameter 32 f INITIAL_PC $end
$var parameter 7 g LW $end
$var parameter 7 h SW $end
$var reg 32 i PC_reg [31:0] $end
$var reg 32 j WriteBackData [31:0] $end
$var reg 32 k dAddress [31:0] $end
$var reg 32 l dWriteData [31:0] $end
$var reg 32 m immediate [31:0] $end
$var reg 32 n op2 [31:0] $end
$scope module alu_instance $end
$var wire 4 o alu_op [3:0] $end
$var wire 32 p op2 [31:0] $end
$var wire 32 q op1 [31:0] $end
$var parameter 4 r ALUOP_ADD $end
$var parameter 4 s ALUOP_AND $end
$var parameter 4 t ALUOP_OR $end
$var parameter 4 u ALUOP_SLL $end
$var parameter 4 v ALUOP_SLT $end
$var parameter 4 w ALUOP_SRA $end
$var parameter 4 x ALUOP_SRL $end
$var parameter 4 y ALUOP_SUB $end
$var parameter 4 z ALUOP_XOR $end
$var reg 32 { result [31:0] $end
$var reg 1 4 zero $end
$upscope $end
$scope module registers $end
$var wire 1 ) clk $end
$var wire 5 | readReg1 [4:0] $end
$var wire 5 } readReg2 [4:0] $end
$var wire 1 V write $end
$var wire 32 ~ writeData [31:0] $end
$var wire 5 !" writeReg [4:0] $end
$var parameter 32 "" DATAWIDTH $end
$var reg 32 #" readData1 [31:0] $end
$var reg 32 $" readData2 [31:0] $end
$var integer 32 %" i [31:0] $end
$upscope $end
$upscope $end
$upscope $end
$upscope $end
$enddefinitions $end
$comment Show the parameter values. $end
$dumpall
b100000 ""
b101 z
b110 y
b1000 x
b1010 w
b100 v
b1001 u
b1 t
b0 s
b10 r
b100011 h
b11 g
b10000000000000000000000 f
b10011 e
b1100011 d
b100 Q
b100 P
b100011 O
b101 N
b10 M
b1 L
b110011 K
b110 J
b11 I
b11 H
b10000000000000000000000 G
b10011 F
b0 E
b1 D
b10 C
b1100011 B
b0 A
b111 @
b101 ?
b110 >
b1000 =
b1010 <
b100 ;
b1001 :
b1 9
b0 8
b10 7
$end
#0
$dumpvars
b100000 %"
bx $"
bx #"
bx !"
bx ~
bx }
bx |
bx {
bx q
bx p
b0 o
bx n
bx m
bx l
bx k
bx j
b10000000000000000000000 i
bx c
b10000000000000000000000 b
bx0 a
bx `
bx _
bx ^
bx ]
bx \
bx [
b0 Z
bx Y
0X
bx W
0V
0U
0T
0S
b0 R
b10000000000000000000000 6
bx 5
x4
bx 3
bx 2
bx 1
bx 0
bx /
b0 .
bx -
bx ,
bx +
1*
0)
x(
x'
b10000000000000000000000 &
bx %
bx $
bx #
bx "
bx !
$end
#5
b111 n
b111 p
b10 R
b10 Z
b10 o
1S
b111 m
b111 `
b1 _
b100000000000 a
b0 |
b111 }
b1 !"
b1 Y
1X
0'
0(
b11100000000000010010011 !
b11100000000000010010011 /
b11100000000000010010011 1
b11100000000000010010011 \
b0 W
1)
#10
0)
0*
#15
b111 +
b10 Y
b111 %
b111 5
b111 j
b111 ~
b0 "
b0 ,
b0 2
b0 l
b111 $
b111 3
b111 k
04
b111 c
b111 {
b100 .
b1 W
b0 ]
b0 $"
b0 ^
b0 q
b0 #"
b10000000000000000000100 &
b10000000000000000000100 6
b10000000000000000000100 b
b10000000000000000000100 i
1)
#20
0)
#25
b10101 +
b10101 %
b10101 5
b10101 j
b10101 ~
b10101 $
b10101 3
b10101 k
b10101 c
b10101 {
b10101 n
b10101 p
b10101 m
b10101 `
b10 _
b10 a
b10101 }
b10 !"
b100 Y
b1000 .
b1010100000000000100010011 !
b1010100000000000100010011 /
b1010100000000000100010011 1
b1010100000000000100010011 \
b10 W
b10000000000000000001000 &
b10000000000000000001000 6
b10000000000000000001000 b
b10000000000000000001000 i
1)
#30
0)
#35
b0 +
b0 %
b0 5
b0 j
b0 ~
b0 $
b0 3
b0 k
14
b0 c
b0 {
b0 n
b0 p
0S
b0 Y
1V
b10 `
b11 _
b100000000010 a
b1 |
b10 }
b11 !"
b1100 .
b100 W
b1000001000000110110011 !
b1000001000000110110011 /
b1000001000000110110011 1
b1000001000000110110011 \
b10000000000000000001100 &
b10000000000000000001100 6
b10000000000000000001100 b
b10000000000000000001100 i
1)
#40
0)
#45
b111110111 +
b11111111111111111111111111110111 %
b11111111111111111111111111110111 5
b11111111111111111111111111110111 j
b11111111111111111111111111110111 ~
b11111111111111111111111111110111 $
b11111111111111111111111111110111 3
b11111111111111111111111111110111 k
04
b11111111111111111111111111110111 c
b11111111111111111111111111110111 {
b11111111111111111111111111110111 n
b11111111111111111111111111110111 p
1S
b11111111111111111111111111110111 m
b11111111111111111111111111110111 `
b11111111111111111111111111100100 _
b11111111111111111111011111100100 a
b0 |
b10111 }
b100 !"
b1 Y
b10000 .
b11111111011100000000001000010011 !
b11111111011100000000001000010011 /
b11111111011100000000001000010011 1
b11111111011100000000001000010011 \
b0 W
b10000000000000000010000 &
b10000000000000000010000 6
b10000000000000000010000 b
b10000000000000000010000 i
1)
#50
0)
#55
b111101111 +
b11111111111111111111111111101111 %
b11111111111111111111111111101111 5
b11111111111111111111111111101111 j
b11111111111111111111111111101111 ~
b11111111111111111111111111101111 $
b11111111111111111111111111101111 3
b11111111111111111111111111101111 k
b11111111111111111111111111101111 c
b11111111111111111111111111101111 {
b11111111111111111111111111101111 n
b11111111111111111111111111101111 p
b10 Y
b11111111111111111111111111101111 m
b11111111111111111111111111101111 `
b11111111111111111111111111100101 _
b11111111111111111111111111100100 a
b10 |
b1111 }
b101 !"
b10100 .
b1 W
b11111110111100010000001010010011 !
b11111110111100010000001010010011 /
b11111110111100010000001010010011 1
b11111110111100010000001010010011 \
b10000000000000000010100 &
b10000000000000000010100 6
b10000000000000000010100 b
b10000000000000000010100 i
1)
#60
0)
#65
b0 +
b0 %
b0 5
b0 j
b0 ~
b0 $
b0 3
b0 k
14
b0 c
b0 {
b0 n
b0 p
0S
b100 `
b110 _
b110 a
b101 |
b100 }
b110 !"
b100 Y
b11000 .
b10000101000001100110011 !
b10000101000001100110011 /
b10000101000001100110011 1
b10000101000001100110011 \
b10 W
b10000000000000000011000 &
b10000000000000000011000 6
b10000000000000000011000 b
b10000000000000000011000 i
1)
#70
0)
#75
b111111000 +
b11111111111111111111111111110111 n
b11111111111111111111111111110111 p
b11111111111111111111111111111000 %
b11111111111111111111111111111000 5
b11111111111111111111111111111000 j
b11111111111111111111111111111000 ~
b11111111111111111111111111110111 "
b11111111111111111111111111110111 ,
b11111111111111111111111111110111 2
b11111111111111111111111111110111 l
b11111111111111111111111111111000 $
b11111111111111111111111111111000 3
b11111111111111111111111111111000 k
04
b11111111111111111111111111111000 c
b11111111111111111111111111111000 {
b110 R
b110 Z
b110 o
b0 Y
b10000000010 `
b10000000111 _
b110000000110 a
b11 |
b10 }
b111 !"
b11100 .
b100 W
b11111111111111111111111111110111 ]
b11111111111111111111111111110111 $"
b11111111111111111111111111101111 ^
b11111111111111111111111111101111 q
b11111111111111111111111111101111 #"
b1000000001000011000001110110011 !
b1000000001000011000001110110011 /
b1000000001000011000001110110011 1
b1000000001000011000001110110011 \
b10000000000000000011100 &
b10000000000000000011100 6
b10000000000000000011100 b
b10000000000000000011100 i
1)
#80
0)
#85
14
b0 +
b1001 R
b1001 Z
b1001 o
b101 `
b1000 _
b1000 a
b111 |
b101 }
b1000 !"
b0 n
b0 p
b0 %
b0 5
b0 j
b0 ~
b0 "
b0 ,
b0 2
b0 l
b0 $
b0 3
b0 k
b0 c
b0 {
b1 Y
b100000 .
b10100111001010000110011 !
b10100111001010000110011 /
b10100111001010000110011 1
b10100111001010000110011 \
b0 ]
b0 $"
b0 ^
b0 q
b0 #"
b0 W
b10000000000000000100000 &
b10000000000000000100000 6
b10000000000000000100000 b
b10000000000000000100000 i
1)
#90
0)
#95
b0 +
b11111111111111111111111111101111 n
b11111111111111111111111111101111 p
b0 %
b0 5
b0 j
b0 ~
b11111111111111111111111111101111 "
b11111111111111111111111111101111 ,
b11111111111111111111111111101111 2
b11111111111111111111111111101111 l
b0 $
b0 3
b0 k
14
b0 c
b0 {
b100 R
b100 Z
b100 o
b10 Y
b1000 `
b1001 _
b100000001000 a
b100 |
b1000 }
b1001 !"
b100100 .
b1 W
b11111111111111111111111111101111 ]
b11111111111111111111111111101111 $"
b11111111111111111111111111111000 ^
b11111111111111111111111111111000 q
b11111111111111111111111111111000 #"
b100000100010010010110011 !
b100000100010010010110011 /
b100000100010010010110011 1
b100000100010010010110011 \
b10000000000000000100100 &
b10000000000000000100100 6
b10000000000000000100100 b
b10000000000000000100100 i
1)
#100
0)
#105
b111110111 +
b11111111111111111111111111110111 %
b11111111111111111111111111110111 5
b11111111111111111111111111110111 j
b11111111111111111111111111110111 ~
b11111111111111111111111111110111 $
b11111111111111111111111111110111 3
b11111111111111111111111111110111 k
04
b11111111111111111111111111110111 c
b11111111111111111111111111110111 {
b101 R
b101 Z
b101 o
b10 `
b1010 _
b1010 a
b1000 |
b10 }
b1010 !"
b0 n
b0 p
b0 "
b0 ,
b0 2
b0 l
b100 Y
b101000 .
b1001000100010100110011 !
b1001000100010100110011 /
b1001000100010100110011 1
b1001000100010100110011 \
b0 ]
b0 $"
b11111111111111111111111111110111 ^
b11111111111111111111111111110111 q
b11111111111111111111111111110111 #"
b10 W
b10000000000000000101000 &
b10000000000000000101000 6
b10000000000000000101000 b
b10000000000000000101000 i
1)
#110
0)
#115
b0 +
b0 %
b0 5
b0 j
b0 ~
b0 $
b0 3
b0 k
14
b0 c
b0 {
b0 R
b0 Z
b0 o
b0 Y
b1000 `
b1011 _
b100000001010 a
b1010 |
b1000 }
b1011 !"
b101100 .
b100 W
b0 ^
b0 q
b0 #"
b100001010111010110110011 !
b100001010111010110110011 /
b100001010111010110110011 1
b100001010111010110110011 \
b10000000000000000101100 &
b10000000000000000101100 6
b10000000000000000101100 b
b10000000000000000101100 i
1)
#120
0)
#125
b111110111 +
b11111111111111111111111111110111 %
b11111111111111111111111111110111 5
b11111111111111111111111111110111 j
b11111111111111111111111111110111 ~
b11111111111111111111111111110111 $
b11111111111111111111111111110111 3
b11111111111111111111111111110111 k
04
b11111111111111111111111111110111 c
b11111111111111111111111111110111 {
b1000 R
b1000 Z
b1000 o
b1001 `
b1100 _
b1100 a
b1011 |
b1001 }
b1100 !"
b1 Y
b110000 .
b100101011101011000110011 !
b100101011101011000110011 /
b100101011101011000110011 1
b100101011101011000110011 \
b11111111111111111111111111110111 ^
b11111111111111111111111111110111 q
b11111111111111111111111111110111 #"
b0 W
b10000000000000000110000 &
b10000000000000000110000 6
b10000000000000000110000 b
b10000000000000000110000 i
1)
#130
0)
#135
b0 +
b0 %
b0 5
b0 j
b0 ~
b0 $
b0 3
b0 k
14
b0 c
b0 {
b1 R
b1 Z
b1 o
b10 Y
b11 `
b1101 _
b100000001100 a
b1100 |
b11 }
b1101 !"
b110100 .
b1 W
b0 ^
b0 q
b0 #"
b1101100110011010110011 !
b1101100110011010110011 /
b1101100110011010110011 1
b1101100110011010110011 \
b10000000000000000110100 &
b10000000000000000110100 6
b10000000000000000110100 b
b10000000000000000110100 i
1)
#140
0)
#145
b111110111 +
b11111111111111111111111111110111 %
b11111111111111111111111111110111 5
b11111111111111111111111111110111 j
b11111111111111111111111111110111 ~
b11111111111111111111111111110111 $
b11111111111111111111111111110111 3
b11111111111111111111111111110111 k
b1010 R
b1010 Z
b1010 o
b10000001001 `
b10000001110 _
b10000001110 a
b100 |
b1001 }
b1110 !"
04
b11111111111111111111111111110111 c
b11111111111111111111111111110111 {
b100 Y
b111000 .
b1000000100100100101011100110011 !
b1000000100100100101011100110011 /
b1000000100100100101011100110011 1
b1000000100100100101011100110011 \
b11111111111111111111111111110111 ^
b11111111111111111111111111110111 q
b11111111111111111111111111110111 #"
b10 W
b10000000000000000111000 &
b10000000000000000111000 6
b10000000000000000111000 b
b10000000000000000111000 i
1)
#150
0)
#155
b10 R
b10 Z
b10 o
1S
b0 Y
b0 m
b1011 `
b0 _
b0 a
b101 |
b1011 }
b0 !"
b111100 .
b100 W
b101100101010000000100011 !
b101100101010000000100011 /
b101100101010000000100011 1
b101100101010000000100011 \
b10000000000000000111100 &
b10000000000000000111100 6
b10000000000000000111100 b
b10000000000000000111100 i
1)
#160
0)
#165
b111101111 +
b11111111111111111111111111101111 %
b11111111111111111111111111101111 5
b11111111111111111111111111101111 j
b11111111111111111111111111101111 ~
b11111111111111111111111111101111 $
b11111111111111111111111111101111 3
b11111111111111111111111111101111 k
b0 `
b1111 _
b100000001110 a
b0 }
b1111 !"
b11111111111111111111111111101111 c
b11111111111111111111111111101111 {
b1 Y
b1000000 .
b101010011110000011 !
b101010011110000011 /
b101010011110000011 1
b101010011110000011 \
b11111111111111111111111111101111 ^
b11111111111111111111111111101111 q
b11111111111111111111111111101111 #"
b0 W
b10000000000000001000000 &
b10000000000000001000000 6
b10000000000000001000000 b
b10000000000000001000000 i
1)
#170
0)
#175
b111000011 +
b11111111111111111111111111000011 %
b11111111111111111111111111000011 5
b11111111111111111111111111000011 j
b11111111111111111111111111000011 ~
b11111111111111111111111111000011 $
b11111111111111111111111111000011 3
b11111111111111111111111111000011 k
b11111111111111111111111111000011 c
b11111111111111111111111111000011 {
b11111111111111111111111111010011 n
b11111111111111111111111111010011 p
b11111111111111111111111111110111 "
b11111111111111111111111111110111 ,
b11111111111111111111111111110111 2
b11111111111111111111111111110111 l
b0 R
b0 Z
b0 o
b10 Y
b11111111111111111111111111010011 m
b11111111111111111111111111010011 `
b11111111111111111111111111010000 _
b11111111111111111111011111010000 a
b1000 |
b10011 }
b10000 !"
b1000100 .
b1 W
b11111111111111111111111111110111 ]
b11111111111111111111111111110111 $"
b11111101001101000111100000010011 !
b11111101001101000111100000010011 /
b11111101001101000111100000010011 1
b11111101001101000111100000010011 \
b10000000000000001000100 &
b10000000000000001000100 6
b10000000000000001000100 b
b10000000000000001000100 i
1)
#180
0)
#185
b10110 n
b10110 p
b10110 +
b1 R
b1 Z
b1 o
b10110 m
b10110 `
b10001 _
b100000010000 a
b10000 |
b10110 }
b10001 !"
b10110 %
b10110 5
b10110 j
b10110 ~
b0 "
b0 ,
b0 2
b0 l
b10110 $
b10110 3
b10110 k
04
b10110 c
b10110 {
b100 Y
b1001000 .
b1011010000110100010010011 !
b1011010000110100010010011 /
b1011010000110100010010011 1
b1011010000110100010010011 \
b0 ]
b0 $"
b0 ^
b0 q
b0 #"
b10 W
b10000000000000001001000 &
b10000000000000001001000 6
b10000000000000001001000 b
b10000000000000001001000 i
1)
#190
0)
#195
b111100001 +
b1111111111111111111111111100001 %
b1111111111111111111111111100001 5
b1111111111111111111111111100001 j
b1111111111111111111111111100001 ~
b1111111111111111111111111100001 $
b1111111111111111111111111100001 3
b1111111111111111111111111100001 k
b1 n
b1 p
b1111111111111111111111111100001 c
b1111111111111111111111111100001 {
b1000 R
b1000 Z
b1000 o
b0 Y
b1 m
b1 `
b10010 _
b10010 a
b1101 |
b1 }
b10010 !"
b1001100 .
b100 W
b11111111111111111111111111000011 ^
b11111111111111111111111111000011 q
b11111111111111111111111111000011 #"
b101101101100100010011 !
b101101101100100010011 /
b101101101100100010011 1
b101101101100100010011 \
b10000000000000001001100 &
b10000000000000001001100 6
b10000000000000001001100 b
b10000000000000001001100 i
1)
#200
0)
#205
b0 +
b0 n
b0 p
b0 %
b0 5
b0 j
b0 ~
b0 $
b0 3
b0 k
0S
b110 R
b110 Z
b110 o
b100000 m
b1011 `
b10000 _
b10000 a
b1111 |
b1011 }
b10000 !"
14
b0 c
b0 {
b1 Y
b1010000 .
b101101111000100001100011 !
b101101111000100001100011 /
b101101111000100001100011 1
b101101111000100001100011 \
b0 ^
b0 q
b0 #"
b0 W
b10000000000000001010000 &
b10000000000000001010000 6
b10000000000000001010000 b
b10000000000000001010000 i
1)
#210
0)
#215
b111101111 +
b11111111111111111111111111101111 %
b11111111111111111111111111101111 5
b11111111111111111111111111101111 j
b11111111111111111111111111101111 ~
b11111111111111111111111111101111 $
b11111111111111111111111111101111 3
b11111111111111111111111111101111 k
04
b11111111111111111111111111101111 c
b11111111111111111111111111101111 {
b10 Y
b0 `
b0 _
b0 a
b0 |
b0 }
b0 !"
b1010100 .
b1 W
b11111111111111111111111111101111 ^
b11111111111111111111111111101111 q
b11111111111111111111111111101111 #"
b0 !
b0 /
b0 1
b0 \
b10000000000000001010100 &
b10000000000000001010100 6
b10000000000000001010100 b
b10000000000000001010100 i
1)
#220
0)
#225
b0 +
b0 %
b0 5
b0 j
b0 ~
b0 $
b0 3
b0 k
14
b0 c
b0 {
b11111111111111111111111111101111 n
b11111111111111111111111111101111 p
b11111111111111111111111111101111 "
b11111111111111111111111111101111 ,
b11111111111111111111111111101111 2
b11111111111111111111111111101111 l
b100 Y
b1011000 .
b11111111111111111111111111101111 ]
b11111111111111111111111111101111 $"
b11111111111111111111111111101111 ^
b11111111111111111111111111101111 q
b11111111111111111111111111101111 #"
b10 W
b10000000000000001011000 &
b10000000000000001011000 6
b10000000000000001011000 b
b10000000000000001011000 i
1)
#230
0)
#235
b0 +
b0 Y
b0 n
b0 p
b0 %
b0 5
b0 j
b0 ~
b0 "
b0 ,
b0 2
b0 l
b0 $
b0 3
b0 k
14
b0 c
b0 {
b1011100 .
b100 W
b0 ]
b0 $"
b0 ^
b0 q
b0 #"
b10000000000000001011100 &
b10000000000000001011100 6
b10000000000000001011100 b
b10000000000000001011100 i
1)
#240
0)
#245
b1 Y
b1100000 .
b0 W
b10000000000000001100000 &
b10000000000000001100000 6
b10000000000000001100000 b
b10000000000000001100000 i
1)
#250
0)
#255
b1 +
b1 %
b1 5
b1 j
b1 ~
b1 $
b1 3
b1 k
04
b1 c
b1 {
b1111 n
b1111 p
1S
b100 R
b100 Z
b100 o
b10 Y
b1111 m
b1111 `
b1001 _
b100000001000 a
b10010 |
b1111 }
b1001 !"
b1100100 .
b1 W
b111110010010010010010011 !
b111110010010010010010011 /
b111110010010010010010011 1
b111110010010010010010011 \
b10000000000000001100100 &
b10000000000000001100100 6
b10000000000000001100100 b
b10000000000000001100100 i
1)
#260
0)
#265
b111010 n
b111010 p
b111011011 +
b101 R
b101 Z
b101 o
b111010 m
b111010 `
b110011 _
b100000110010 a
b1000 |
b11010 }
b10011 !"
b1111111111111111111111111011011 %
b1111111111111111111111111011011 5
b1111111111111111111111111011011 j
b1111111111111111111111111011011 ~
b11111111111111111111111111101111 "
b11111111111111111111111111101111 ,
b11111111111111111111111111101111 2
b11111111111111111111111111101111 l
b1111111111111111111111111011011 $
b1111111111111111111111111011011 3
b1111111111111111111111111011011 k
04
b1111111111111111111111111011011 c
b1111111111111111111111111011011 {
b100 Y
b1101000 .
b11101001000100100110010011 !
b11101001000100100110010011 /
b11101001000100100110010011 1
b11101001000100100110010011 \
b11111111111111111111111111101111 ]
b11111111111111111111111111101111 $"
b1111111111111111111111111100001 ^
b1111111111111111111111111100001 q
b1111111111111111111111111100001 #"
b10 W
b10000000000000001101000 &
b10000000000000001101000 6
b10000000000000001101000 b
b10000000000000001101000 i
1)
#270
0)
#275
b0 +
b1 n
b1 p
b0 %
b0 5
b0 j
b0 ~
b0 "
b0 ,
b0 2
b0 l
b0 $
b0 3
b0 k
14
b0 c
b0 {
b1001 R
b1001 Z
b1001 o
b0 Y
b1 m
b1 `
b10100 _
b10100 a
b10001 |
b1 }
b10100 !"
b1101100 .
b100 W
b0 ]
b0 $"
b0 ^
b0 q
b0 #"
b110001001101000010011 !
b110001001101000010011 /
b110001001101000010011 1
b110001001101000010011 \
b10000000000000001101100 &
b10000000000000001101100 6
b10000000000000001101100 b
b10000000000000001101100 i
1)
#280
0)
#285
b101 +
b10000000010 n
b10000000010 p
b101 %
b101 5
b101 j
b101 ~
b101 $
b101 3
b101 k
b1010 R
b1010 Z
b1010 o
b10000000010 m
b10000000010 `
b10000000101 _
b110000000100 a
b1111 |
b10 }
b101 !"
04
b101 c
b101 {
b1 Y
b1110000 .
b1000000001001111101001010010011 !
b1000000001001111101001010010011 /
b1000000001001111101001010010011 1
b1000000001001111101001010010011 \
b10110 ^
b10110 q
b10110 #"
b0 W
b10000000000000001110000 &
b10000000000000001110000 6
b10000000000000001110000 b
b10000000000000001110000 i
1)
#290
0)
#295
b111101111 +
b11111111111111111111111111101111 %
b11111111111111111111111111101111 5
b11111111111111111111111111101111 j
b11111111111111111111111111101111 ~
b11111111111111111111111111101111 $
b11111111111111111111111111101111 3
b11111111111111111111111111101111 k
b0 n
b0 p
b11111111111111111111111111101111 c
b11111111111111111111111111101111 {
0S
b10 Y
b0 `
b0 _
b0 a
b0 |
b0 }
b0 !"
b1110100 .
b1 W
b11111111111111111111111111101111 ^
b11111111111111111111111111101111 q
b11111111111111111111111111101111 #"
b0 !
b0 /
b0 1
b0 \
b10000000000000001110100 &
b10000000000000001110100 6
b10000000000000001110100 b
b10000000000000001110100 i
1)
#300
0)
#305
b111111111 +
b11111111111111111111111111111111 %
b11111111111111111111111111111111 5
b11111111111111111111111111111111 j
b11111111111111111111111111111111 ~
b11111111111111111111111111111111 $
b11111111111111111111111111111111 3
b11111111111111111111111111111111 k
b11111111111111111111111111111111 c
b11111111111111111111111111111111 {
b11111111111111111111111111101111 n
b11111111111111111111111111101111 p
b11111111111111111111111111101111 "
b11111111111111111111111111101111 ,
b11111111111111111111111111101111 2
b11111111111111111111111111101111 l
b100 Y
b1111000 .
b11111111111111111111111111101111 ]
b11111111111111111111111111101111 $"
b11111111111111111111111111101111 ^
b11111111111111111111111111101111 q
b11111111111111111111111111101111 #"
b10 W
b10000000000000001111000 &
b10000000000000001111000 6
b10000000000000001111000 b
b10000000000000001111000 i
1)
#310
0)
#315
b0 Y
b11111111111111111111111111111111 n
b11111111111111111111111111111111 p
b11111111111111111111111111111111 "
b11111111111111111111111111111111 ,
b11111111111111111111111111111111 2
b11111111111111111111111111111111 l
b1111100 .
b100 W
b11111111111111111111111111111111 ]
b11111111111111111111111111111111 $"
b11111111111111111111111111111111 ^
b11111111111111111111111111111111 q
b11111111111111111111111111111111 #"
b10000000000000001111100 &
b10000000000000001111100 6
b10000000000000001111100 b
b10000000000000001111100 i
1)
#320
0)
#325
b1 Y
b10000000 .
b0 W
b10000000000000010000000 &
b10000000000000010000000 6
b10000000000000010000000 b
b10000000000000010000000 i
1)
#330
0)
#335
b10 Y
b10000100 .
b1 W
b10000000000000010000100 &
b10000000000000010000100 6
b10000000000000010000100 b
b10000000000000010000100 i
1)
#340
0)
#345
b100 Y
b10001000 .
b10 W
b10000000000000010001000 &
b10000000000000010001000 6
b10000000000000010001000 b
b10000000000000010001000 i
1)
#350
0)
#355
b0 Y
b10001100 .
b100 W
b10000000000000010001100 &
b10000000000000010001100 6
b10000000000000010001100 b
b10000000000000010001100 i
1)
#360
0)
#365
b1 Y
b10010000 .
b0 W
b10000000000000010010000 &
b10000000000000010010000 6
b10000000000000010010000 b
b10000000000000010010000 i
1)
#370
0)
#375
b10 Y
b10010100 .
b1 W
b10000000000000010010100 &
b10000000000000010010100 6
b10000000000000010010100 b
b10000000000000010010100 i
1)
#380
0)
#385
b100 Y
b10011000 .
b10 W
b10000000000000010011000 &
b10000000000000010011000 6
b10000000000000010011000 b
b10000000000000010011000 i
1)
#390
0)
#395
b0 Y
b10011100 .
b100 W
b10000000000000010011100 &
b10000000000000010011100 6
b10000000000000010011100 b
b10000000000000010011100 i
1)
#400
0)
#405
b1 Y
b10100000 .
b0 W
b10000000000000010100000 &
b10000000000000010100000 6
b10000000000000010100000 b
b10000000000000010100000 i
1)
#410
0)
#415
b10 Y
b10100100 .
b1 W
b10000000000000010100100 &
b10000000000000010100100 6
b10000000000000010100100 b
b10000000000000010100100 i
1)
#420
0)
#425
b100 Y
b10101000 .
b10 W
b10000000000000010101000 &
b10000000000000010101000 6
b10000000000000010101000 b
b10000000000000010101000 i
1)
#430
0)
#435
b0 Y
b10101100 .
b100 W
b10000000000000010101100 &
b10000000000000010101100 6
b10000000000000010101100 b
b10000000000000010101100 i
1)
#440
0)
#445
b1 Y
b10110000 .
b0 W
b10000000000000010110000 &
b10000000000000010110000 6
b10000000000000010110000 b
b10000000000000010110000 i
1)
#450
0)
#455
b10 Y
b10110100 .
b1 W
b10000000000000010110100 &
b10000000000000010110100 6
b10000000000000010110100 b
b10000000000000010110100 i
1)
#460
0)
#465
b100 Y
b10111000 .
b10 W
b10000000000000010111000 &
b10000000000000010111000 6
b10000000000000010111000 b
b10000000000000010111000 i
1)
#470
0)
#475
b0 Y
b10111100 .
b100 W
b10000000000000010111100 &
b10000000000000010111100 6
b10000000000000010111100 b
b10000000000000010111100 i
1)
#480
0)
#485
b1 Y
b11000000 .
b0 W
b10000000000000011000000 &
b10000000000000011000000 6
b10000000000000011000000 b
b10000000000000011000000 i
1)
#490
0)
#495
b10 Y
b11000100 .
b1 W
b10000000000000011000100 &
b10000000000000011000100 6
b10000000000000011000100 b
b10000000000000011000100 i
1)
#500
0)
#505
b100 Y
b11001000 .
b10 W
b10000000000000011001000 &
b10000000000000011001000 6
b10000000000000011001000 b
b10000000000000011001000 i
1)
#510
0)
#515
b0 Y
b11001100 .
b100 W
b10000000000000011001100 &
b10000000000000011001100 6
b10000000000000011001100 b
b10000000000000011001100 i
1)
#520
0)
#525
b1 Y
b11010000 .
b0 W
b10000000000000011010000 &
b10000000000000011010000 6
b10000000000000011010000 b
b10000000000000011010000 i
1)
#530
0)
#535
b10 Y
b11010100 .
b1 W
b10000000000000011010100 &
b10000000000000011010100 6
b10000000000000011010100 b
b10000000000000011010100 i
1)
#540
0)
#545
b100 Y
b11011000 .
b10 W
b10000000000000011011000 &
b10000000000000011011000 6
b10000000000000011011000 b
b10000000000000011011000 i
1)
#550
0)
#555
b0 Y
b11011100 .
b100 W
b10000000000000011011100 &
b10000000000000011011100 6
b10000000000000011011100 b
b10000000000000011011100 i
1)
#560
0)
#565
b1 Y
b11100000 .
b0 W
b10000000000000011100000 &
b10000000000000011100000 6
b10000000000000011100000 b
b10000000000000011100000 i
1)
#570
0)
#575
b10 Y
b11100100 .
b1 W
b10000000000000011100100 &
b10000000000000011100100 6
b10000000000000011100100 b
b10000000000000011100100 i
1)
#580
0)
#585
b100 Y
b11101000 .
b10 W
b10000000000000011101000 &
b10000000000000011101000 6
b10000000000000011101000 b
b10000000000000011101000 i
1)
#590
0)
#595
b0 Y
b11101100 .
b100 W
b10000000000000011101100 &
b10000000000000011101100 6
b10000000000000011101100 b
b10000000000000011101100 i
1)
#600
0)
#605
b1 Y
b11110000 .
b0 W
b10000000000000011110000 &
b10000000000000011110000 6
b10000000000000011110000 b
b10000000000000011110000 i
1)
#610
0)
